<svg xmlns="http://www.w3.org/2000/svg" xmlns:xlink="http://www.w3.org/1999/xlink" width="198.717" height="40.503" viewBox="0 0 198.717 40.503">
  <defs>
    <clipPath id="clip-path">
      <path id="Path_10333" data-name="Path 10333" d="M801.072,528.3c-3.521,0-5.021,1.463-5.021,4.912v3.144a.946.946,0,0,1-.945.945h-3.036c-3.519,0-5.021,1.462-5.021,4.912v3.144a.946.946,0,0,1-.945.945h-3.036c-3.52,0-5.021,1.462-5.021,4.912v4.089a13.5,13.5,0,0,0,27,0v-8.993h-3.98c-3.521,0-5.021,1.454-5.021,4.9v4.089a4.5,4.5,0,0,1-9,0v-8.056a.946.946,0,0,1,.945-.945h3.289c3.52,0,4.766-2.055,4.766-5.5V538.25a.945.945,0,0,1,.944-.944h3.289c3.521,0,4.767-2.055,4.767-5.5v-3.5Z" transform="translate(-778.05 -528.305)" fill="#17355a"/>
    </clipPath>
  </defs>
  <g id="Group_64727" data-name="Group 64727" transform="translate(19378 15368)">
    <g id="Group_55080" data-name="Group 55080" transform="translate(-19206.285 -15368)">
      <g id="Group_55077" data-name="Group 55077" transform="translate(0 0)">
        <g id="Group_55076" data-name="Group 55076" clip-path="url(#clip-path)">
          <rect id="Rectangle_2500" data-name="Rectangle 2500" width="47.733" height="47.733" transform="translate(-20.251 20.251) rotate(-45)" fill="#17355a"/>
        </g>
      </g>
    </g>
    <text id="بوابة_الجهات_الشريكة_الموحدة" data-name="بوابة الجهات الشريكة الموحدة" transform="translate(-19377 -15342)" fill="#004268" font-size="13" font-family="Cairo" font-weight="700" letter-spacing="-0.025em"><tspan x="0" y="0">بوابة الجهات الشريكة الموحدة</tspan></text>
  </g>
</svg>
