<svg xmlns="http://www.w3.org/2000/svg" width="104.947" height="79.755" viewBox="0 0 104.947 79.755">
  <g id="Group_64514" data-name="Group 64514" transform="translate(22721.104 16750.559)">
    <line id="Line_2590" data-name="Line 2590" x1="9.813" y1="2.579" transform="translate(-22719.271 -16690.818)" fill="none" stroke="#fbb040" stroke-linecap="round" stroke-linejoin="round" stroke-width="3"/>
    <line id="Line_2591" data-name="Line 2591" x1="9.527" y2="4.011" transform="translate(-22718.984 -16676.779)" fill="none" stroke="#fbb040" stroke-linecap="round" stroke-linejoin="round" stroke-width="3"/>
    <line id="Line_2592" data-name="Line 2592" y1="2.579" x2="9.813" transform="translate(-22627.801 -16690.818)" fill="none" stroke="#fbb040" stroke-linecap="round" stroke-linejoin="round" stroke-width="3"/>
    <line id="Line_2593" data-name="Line 2593" x2="9.527" y2="4.011" transform="translate(-22627.801 -16676.779)" fill="none" stroke="#fbb040" stroke-linecap="round" stroke-linejoin="round" stroke-width="3"/>
    <g id="data-exchange" transform="translate(-22720 -16750.559)">
      <g id="Group_64483" data-name="Group 64483" transform="translate(0 0)">
        <path id="Path_30890" data-name="Path 30890" d="M353.879,57.352a3.66,3.66,0,1,0-3.66-3.66A3.665,3.665,0,0,0,353.879,57.352Zm0-4.88a1.22,1.22,0,1,1-1.22,1.22A1.222,1.222,0,0,1,353.879,52.471Z" transform="translate(-298.976 -42.711)" fill="#1e3557"/>
        <path id="Path_30891" data-name="Path 30891" d="M316.865,66.708h2.44v2.44h-2.44Z" transform="translate(-270.502 -56.947)" fill="#1e3557"/>
        <path id="Path_30892" data-name="Path 30892" d="M416.928,66.708h2.44v2.44h-2.44Z" transform="translate(-355.924 -56.947)" fill="#1e3557"/>
        <path id="Path_30893" data-name="Path 30893" d="M41.693,133.417h4.88v2.44h-4.88Z" transform="translate(-35.593 -113.896)" fill="#1e3557"/>
        <path id="Path_30894" data-name="Path 30894" d="M91.724,133.417h7.32v2.44h-7.32Z" transform="translate(-78.303 -113.896)" fill="#1e3557"/>
        <path id="Path_30895" data-name="Path 30895" d="M41.693,166.771h12.2v2.44h-12.2Z" transform="translate(-35.593 -142.37)" fill="#1e3557"/>
        <path id="Path_30896" data-name="Path 30896" d="M41.693,200.125h9.761v2.44H41.693Z" transform="translate(-35.593 -170.843)" fill="#1e3557"/>
        <path id="Path_30897" data-name="Path 30897" d="M73.2,39.042H56.061c.027-.405.062-.808.062-1.22A18.282,18.282,0,0,0,29.282,21.649V12.2H43.923V9.761H29.282V2.44A2.443,2.443,0,0,0,26.842,0H2.44A2.443,2.443,0,0,0,0,2.44V34.162A2.443,2.443,0,0,0,2.44,36.6H19.583c-.027.405-.062.808-.062,1.22A18.282,18.282,0,0,0,46.363,54v9.448H31.722v2.44H46.363V73.2a2.443,2.443,0,0,0,2.44,2.44H73.2a2.443,2.443,0,0,0,2.44-2.44V41.483A2.442,2.442,0,0,0,73.2,39.042Zm-41.483-1.22a20.747,20.747,0,0,1,.938-6.1H42.983a20.289,20.289,0,0,1,0,12.2H32.661a20.7,20.7,0,0,1-.94-6.1ZM35.87,25.378l1.952-2.6,1.952,2.6a20.608,20.608,0,0,1,2.288,3.9H33.584a20.568,20.568,0,0,1,2.286-3.9Zm-4.933,3.9H24.478A15.874,15.874,0,0,1,35.207,22.2l-1.288,1.718A23.11,23.11,0,0,0,30.937,29.282ZM42.062,46.363a20.637,20.637,0,0,1-2.288,3.9l-1.952,2.6-1.952-2.6a20.608,20.608,0,0,1-2.288-3.9Zm-.336,5.368a23.092,23.092,0,0,0,2.981-5.368h6.459a15.874,15.874,0,0,1-10.728,7.086ZM52.46,43.923H45.521a22.522,22.522,0,0,0,0-12.2H52.46a15.817,15.817,0,0,1,0,12.2ZM51.166,29.282H44.707a23.124,23.124,0,0,0-2.981-5.368L40.438,22.2A15.875,15.875,0,0,1,51.166,29.282ZM2.44,34.162V2.44h24.4v7.32H14.459l3.384-2.707L16.32,5.147,9.027,10.981l7.291,5.833,1.524-1.906L14.459,12.2H26.842V23.217A18.318,18.318,0,0,0,19.89,34.162H2.44Zm20.745-2.44h6.939a22.522,22.522,0,0,0,0,12.2H23.185a15.817,15.817,0,0,1,0-12.2Zm1.293,14.641h6.459a23.124,23.124,0,0,0,2.981,5.368l1.288,1.718a15.875,15.875,0,0,1-10.728-7.086ZM73.2,73.2H48.8v-7.32H61.185L57.8,68.591,59.325,70.5l7.292-5.833-7.291-5.833L57.8,60.736l3.383,2.707H48.8V52.428a18.318,18.318,0,0,0,6.952-10.945H73.2V73.2Z" transform="translate(0 0)" fill="#1e3557"/>
        <path id="Path_30898" data-name="Path 30898" d="M120.4,416.928a3.66,3.66,0,1,0,3.66,3.66A3.665,3.665,0,0,0,120.4,416.928Zm0,4.88a1.22,1.22,0,1,1,1.22-1.22A1.222,1.222,0,0,1,120.4,421.808Z" transform="translate(-99.658 -355.924)" fill="#1e3557"/>
        <path id="Path_30899" data-name="Path 30899" d="M183.448,433.6h2.44v2.44h-2.44Z" transform="translate(-156.606 -370.161)" fill="#1e3557"/>
        <path id="Path_30900" data-name="Path 30900" d="M83.386,433.6h2.44v2.44h-2.44Z" transform="translate(-71.185 -370.161)" fill="#1e3557"/>
        <path id="Path_30901" data-name="Path 30901" d="M441.943,300.188h4.88v2.44h-4.88Z" transform="translate(-377.279 -256.265)" fill="#1e3557"/>
        <path id="Path_30902" data-name="Path 30902" d="M391.912,300.188h4.88v2.44h-4.88Z" transform="translate(-334.569 -256.265)" fill="#1e3557"/>
        <path id="Path_30903" data-name="Path 30903" d="M391.912,333.542h12.2v2.44h-12.2Z" transform="translate(-334.569 -284.739)" fill="#1e3557"/>
        <path id="Path_30904" data-name="Path 30904" d="M408.589,366.9h9.761v2.44h-9.761Z" transform="translate(-348.805 -313.213)" fill="#1e3557"/>
      </g>
    </g>
  </g>
</svg>
