<svg xmlns="http://www.w3.org/2000/svg" width="39.881" height="39.881" viewBox="0 0 39.881 39.881">
  <g id="Group_64513" data-name="Group 64513" transform="translate(19069 14066.506)">
    <g id="Group_445" data-name="Group 445" transform="translate(-19069 -14066.506)">
      <path id="Path_1162" data-name="Path 1162" d="M1446.881,669.941A19.941,19.941,0,1,1,1426.941,650,19.943,19.943,0,0,1,1446.881,669.941Z" transform="translate(-1407 -650)" fill="#1aaec8"/>
    </g>
    <path id="Path_2806" data-name="Path 2806" d="M1420.078,669h-2.906c-.47,0-.613-.175-.613-.614v-3.539c0-.467.171-.614.613-.614h2.906v-2.574a6.5,6.5,0,0,1,.783-3.3,4.854,4.854,0,0,1,2.606-2.164,6.444,6.444,0,0,1,2.25-.38h2.863c.413,0,.584.175.584.584v3.334c0,.41-.171.585-.584.585-.783,0-1.581,0-2.364.028a1.051,1.051,0,0,0-1.2,1.2c-.028.877,0,1.726,0,2.632h3.39c.47,0,.641.175.641.644v3.538c0,.469-.142.615-.641.615h-3.39V678.5c0,.5-.156.672-.684.672h-3.646c-.442,0-.613-.175-.613-.614Z" transform="translate(-20471.941 -14714.042)" fill="#fff"/>
  </g>
</svg>
