<svg xmlns="http://www.w3.org/2000/svg" width="17.173" height="16.308" viewBox="0 0 17.173 16.308">
  <g id="Group_58984" data-name="Group 58984" transform="translate(-115.727 -16.6)">
    <path id="Vector" d="M12.444-6.222a6.222,6.222,0,0,0-6.222-6.222A6.222,6.222,0,0,0,0-6.222,6.222,6.222,0,0,0,6.222,0,6.222,6.222,0,0,0,12.444-6.222Z" transform="translate(132 17.5) rotate(180)" fill="none" stroke="#17355a" stroke-linecap="round" stroke-linejoin="round" stroke-width="1.8"/>
    <path id="Vector-2" data-name="Vector" d="M3.383-3.383,0,0" transform="translate(120.383 28.252) rotate(180)" fill="none" stroke="#17355a" stroke-linecap="round" stroke-linejoin="round" stroke-width="1.8"/>
  </g>
</svg>
