<svg xmlns="http://www.w3.org/2000/svg" width="140" height="135" viewBox="0 0 140 135">
  <g id="Group_64698" data-name="Group 64698" transform="translate(12759 5424.863)">
    <circle id="Ellipse_174" data-name="Ellipse 174" cx="65.5" cy="65.5" r="65.5" transform="translate(-12759 -5420.863)" fill="#29c9d2"/>
    <circle id="Ellipse_175" data-name="Ellipse 175" cx="35" cy="35" r="35" transform="translate(-12689 -5424.863)" fill="#f5f9fc" opacity="0.56"/>
  </g>
</svg>
