<svg id="work_list" data-name="work list" xmlns="http://www.w3.org/2000/svg" width="86.846" height="86.846" viewBox="0 0 86.846 86.846">
  <path id="Path_30876" data-name="Path 30876" d="M428.449,14.757h-2.12v-2.12a1.272,1.272,0,0,0-.848-1.2V3.816a3.816,3.816,0,0,0-7.633,0v7.623a1.272,1.272,0,0,0-.848,1.2V70.976a21.391,21.391,0,0,0,3.392,11.577v3.021a1.272,1.272,0,0,0,2.544,0V82.553a21.391,21.391,0,0,0,3.392-11.577V17.3h2.12a2.124,2.124,0,0,1,2.12,2.12V36.384a1.272,1.272,0,1,0,2.544,0V19.422a4.671,4.671,0,0,0-4.665-4.665Zm-8.905-.848h4.241V63.947h-4.241Zm2.12-11.365a1.272,1.272,0,0,1,1.272,1.272v7.548h-2.544V3.816A1.272,1.272,0,0,1,421.665,2.544Zm0,77.138a18.852,18.852,0,0,1-2.12-8.707V66.491h4.241v4.485a18.853,18.853,0,0,1-2.12,8.707Z" transform="translate(-346.268 0)" fill="#1e3557"/>
  <path id="Path_30877" data-name="Path 30877" d="M62.336,8.481H58.519V4.665a4.665,4.665,0,1,0-9.329,0V8.481H43.818V4.665a4.665,4.665,0,1,0-9.329,0V8.481h-5.37V4.665a4.665,4.665,0,0,0-9.329,0V8.481H14.418V4.665a4.665,4.665,0,0,0-9.329,0V8.481H1.272A1.272,1.272,0,0,0,0,9.753v75.82a1.272,1.272,0,0,0,1.272,1.272H62.336a1.272,1.272,0,0,0,1.272-1.272V9.753a1.272,1.272,0,0,0-1.272-1.272Zm-10.6-3.816a2.12,2.12,0,0,1,4.241,0V8.481H51.734Zm-14.7,0a2.12,2.12,0,0,1,4.241,0V8.481H37.033Zm-14.7,0a2.12,2.12,0,0,1,4.241,0V8.481H22.334Zm-14.7,0a2.12,2.12,0,0,1,4.241,0V8.481H7.633Zm53.43,6.361v5.937H2.544V11.025ZM2.544,84.3v-64.8H61.063V84.3Z" transform="translate(0 0)" fill="#1e3557"/>
  <path id="Path_30878" data-name="Path 30878" d="M205.019,178.34H181.272a1.272,1.272,0,1,0,0,2.544h23.747a1.272,1.272,0,1,0,0-2.544Z" transform="translate(-149.468 -148.09)" fill="#1e3557"/>
  <path id="Path_30879" data-name="Path 30879" d="M141.272,180.884h1.7a1.272,1.272,0,1,0,0-2.544h-1.7a1.272,1.272,0,1,0,0,2.544Z" transform="translate(-116.253 -148.09)" fill="#1e3557"/>
  <path id="Path_30880" data-name="Path 30880" d="M171.8,218.34H141.272a1.272,1.272,0,0,0,0,2.544H171.8a1.272,1.272,0,0,0,0-2.544Z" transform="translate(-116.253 -181.305)" fill="#1e3557"/>
  <path id="Path_30881" data-name="Path 30881" d="M51.449,271.84H41.272A1.272,1.272,0,0,0,40,273.112v10.177a1.272,1.272,0,0,0,1.272,1.272H51.449a1.272,1.272,0,0,0,1.272-1.272V273.112A1.272,1.272,0,0,0,51.449,271.84Zm-1.272,10.177H42.544v-7.633h7.633Z" transform="translate(-33.215 -225.73)" fill="#1e3557"/>
  <path id="Path_30982" data-name="Path 30982" d="M51.449,271.84H41.272A1.272,1.272,0,0,0,40,273.112v10.177a1.272,1.272,0,0,0,1.272,1.272H51.449a1.272,1.272,0,0,0,1.272-1.272V273.112A1.272,1.272,0,0,0,51.449,271.84Zm-1.272,10.177H42.544v-7.633h7.633Z" transform="translate(-33.215 -244.981)" fill="#1e3557"/>
  <path id="Path_30882" data-name="Path 30882" d="M205.019,291.84H181.272a1.272,1.272,0,0,0,0,2.544h23.747a1.272,1.272,0,1,0,0-2.544Z" transform="translate(-149.468 -242.338)" fill="#1e3557"/>
  <path id="Path_30883" data-name="Path 30883" d="M141.272,294.384h1.7a1.272,1.272,0,1,0,0-2.544h-1.7a1.272,1.272,0,1,0,0,2.544Z" transform="translate(-116.253 -242.338)" fill="#1e3557"/>
  <path id="Path_30884" data-name="Path 30884" d="M171.8,331.84H141.272a1.272,1.272,0,1,0,0,2.544H171.8a1.272,1.272,0,0,0,0-2.544Z" transform="translate(-116.253 -275.553)" fill="#1e3557"/>
  <path id="Path_30885" data-name="Path 30885" d="M51.449,385.34H41.272A1.272,1.272,0,0,0,40,386.612v10.177a1.272,1.272,0,0,0,1.272,1.272H51.449a1.272,1.272,0,0,0,1.272-1.272V386.612a1.272,1.272,0,0,0-1.272-1.272Zm-1.272,10.177H42.544v-7.633h7.633Z" transform="translate(-33.215 -319.978)" fill="#1e3557"/>
  <path id="Path_30886" data-name="Path 30886" d="M205.019,405.34H181.272a1.272,1.272,0,0,0,0,2.544h23.747a1.272,1.272,0,0,0,0-2.544Z" transform="translate(-149.468 -336.586)" fill="#1e3557"/>
  <path id="Path_30887" data-name="Path 30887" d="M141.272,407.884h1.7a1.272,1.272,0,0,0,0-2.544h-1.7a1.272,1.272,0,0,0,0,2.544Z" transform="translate(-116.253 -336.586)" fill="#1e3557"/>
  <path id="Path_30888" data-name="Path 30888" d="M171.8,445.34H141.272a1.272,1.272,0,0,0,0,2.544H171.8a1.272,1.272,0,1,0,0-2.544Z" transform="translate(-116.253 -369.801)" fill="#1e3557"/>
</svg>
